
C:\Users\Leonassan\workspace\OAIHarvester>"c:\Program Files (x86)\Java\jre6\bin\java" -classpath .;log4j-1.2.12.jar;harvester2.jar;xalan.jar ORG.oclc.oai.harvester2.app.RawWrite http://alcme.oclc.org/oaicat/OAIHandler 
Tue Jun 15 12:30:01 EDT 2010
<?xml version="1.0" encoding="UTF-8"?>
<harvest>
<?xml-stylesheet type="text/xsl" href="/oaicat/oaicat.xsl"?>
<OAI-PMH xmlns="http://www.openarchives.org/OAI/2.0/" xmlns:xsi="http://www.w3.org/2001/XMLSchema-instance" xsi:schemaLocation="http://www.openarchives.org/OAI/2.0/ http://www.openarchives.org/OAI/2.0/OAI-PMH.xsd"><responseDate>2010-06-15T16:30:04Z</responseDate><request verb="Identify">http://alcme.oclc.org/oaicat/OAIHandler</request><Identify><repositoryName>File System Repository</repositoryName><baseURL>http://alcme.oclc.org/oaicat/OAIHandler</baseURL><protocolVersion>2.0</protocolVersion><adminEmail>mailto:jyoung@oclc.org</adminEmail><earliestDatestamp>2000-01-01T00:00:00Z</earliestDatestamp><deletedRecord>no</deletedRecord><granularity>YYYY-MM-DDThh:mm:ssZ</granularity><compression>gzip</compression><compression>deflate</compression><description><oai-identifier xmlns="http://www.openarchives.org/OAI/2.0/oai-identifier" xmlns:xsi="http://www.w3.org/2001/XMLSchema-instance" xsi:schemaLocation="http://www.openarchives.org/OAI/2.0/oai-identifier http://www.openarchives.org/OAI/2.0/oai-identifier.xsd"><scheme>oai</scheme><repositoryIdentifier>oaicat.oclc.org</repositoryIdentifier><delimiter>:</delimiter><sampleIdentifier>oai:oaicat.oclc.org:OCLCNo/ocm00000012</sampleIdentifier></oai-identifier></description>
<description><toolkit xmlns="http://oai.dlib.vt.edu/OAI/metadata/toolkit" xsi:schemaLocation="http://oai.dlib.vt.edu/OAI/metadata/toolkit http://alcme.oclc.org/oaicat/toolkit.xsd"><title>OCLC's OAICat Repository Framework</title><author><name>Jeffrey A. Young</name><email>jyoung@oclc.org</email><institution>OCLC</institution></author><version>1.5.55</version><toolkitIcon>http://alcme.oclc.org/oaicat/oaicat_icon.gif</toolkitIcon><URL>http://www.oclc.org/research/software/oai/cat.shtm</URL></toolkit></description></Identify></OAI-PMH>
<?xml-stylesheet type="text/xsl" href="/oaicat/oaicat.xsl"?>
<OAI-PMH xmlns="http://www.openarchives.org/OAI/2.0/" xmlns:xsi="http://www.w3.org/2001/XMLSchema-instance" xsi:schemaLocation="http://www.openarchives.org/OAI/2.0/ http://www.openarchives.org/OAI/2.0/OAI-PMH.xsd"><responseDate>2010-06-15T16:30:04Z</responseDate><request verb="ListMetadataFormats">http://alcme.oclc.org/oaicat/OAIHandler</request><ListMetadataFormats><metadataFormat><metadataPrefix>oai_dc</metadataPrefix><schema>http://www.openarchives.org/OAI/2.0/oai_dc.xsd</schema><metadataNamespace>http://www.openarchives.org/OAI/2.0/oai_dc/</metadataNamespace></metadataFormat><metadataFormat><metadataPrefix>oai_etdms</metadataPrefix><schema>http://www.ndltd.org/standards/metadata/etdms/1.0/etdms.xsd</schema><metadataNamespace>http://www.ndltd.org/standards/metadata/etdms/1.0/</metadataNamespace></metadataFormat></ListMetadataFormats></OAI-PMH>
<?xml-stylesheet type="text/xsl" href="/oaicat/oaicat.xsl"?>
<OAI-PMH xmlns="http://www.openarchives.org/OAI/2.0/" xmlns:xsi="http://www.w3.org/2001/XMLSchema-instance" xsi:schemaLocation="http://www.openarchives.org/OAI/2.0/ http://www.openarchives.org/OAI/2.0/OAI-PMH.xsd"><responseDate>2010-06-15T16:30:04Z</responseDate><request verb="ListSets">http://alcme.oclc.org/oaicat/OAIHandler</request><error code="noSetHierarchy">The repository does not support sets.</error></OAI-PMH>
<?xml-stylesheet type="text/xsl" href="/oaicat/oaicat.xsl"?>
<OAI-PMH xmlns="http://www.openarchives.org/OAI/2.0/" xmlns:xsi="http://www.w3.org/2001/XMLSchema-instance" xsi:schemaLocation="http://www.openarchives.org/OAI/2.0/ http://www.openarchives.org/OAI/2.0/OAI-PMH.xsd"><responseDate>2010-06-15T16:30:04Z</responseDate><request metadataPrefix="oai_dc" verb="ListRecords">http://alcme.oclc.org/oaicat/OAIHandler</request><ListRecords>
<record><header><identifier>oai:oaicat.oclc.org:2002/ocm11992160</identifier><datestamp>2007-01-25T13:37:14Z</datestamp></header><metadata><oai_dc:dc xmlns:dc="http://purl.org/dc/elements/1.1/" xmlns:oai_dc="http://www.openarchives.org/OAI/2.0/oai_dc/" xmlns:xsi="http://www.w3.org/2001/XMLSchema-instance" xsi:schemaLocation="http://www.openarchives.org/OAI/2.0/oai_dc/ http://www.openarchives.org/OAI/2.0/oai_dc.xsd"><dc:title>Wang Anshi di jing shi si xiang /--Xia Changpu zhuan.</dc:title><dc:title>王安石的經世思想 /--夏長樸撰.</dc:title><dc:creator>Xia, Changpu.</dc:creator><dc:creator>夏長樸.</dc:creator><dc:subject>Wang, Anshi,--1021-1086.</dc:subject><dc:subject>王安石,--1021-1086.</dc:subject><dc:subject>Statesmen--China.</dc:subject><dc:description>Cover title.</dc:description><dc:description>Reproduced from typescript; on double leaves.</dc:description><dc:description>Thesis (Ph. D.)--Guo li Taiwan da xue, 1980.</dc:description><dc:description>Thesis (Ph. D.)--國立臺灣大學, 1980.</dc:description><dc:description>Includes bibliographical reference (p. 321-342).</dc:description><dc:date>1980</dc:date><dc:type>Electronic Thesis or Dissertation</dc:type><dc:identifier>unknown</dc:identifier></oai_dc:dc></metadata></record>
<record><header><identifier>oai:oaicat.oclc.org:2001/ocm11060659</identifier><datestamp>2007-01-25T13:37:14Z</datestamp></header><metadata><oai_dc:dc xmlns:dc="http://purl.org/dc/elements/1.1/" xmlns:oai_dc="http://www.openarchives.org/OAI/2.0/oai_dc/" xmlns:xsi="http://www.w3.org/2001/XMLSchema-instance" xsi:schemaLocation="http://www.openarchives.org/OAI/2.0/oai_dc/ http://www.openarchives.org/OAI/2.0/oai_dc.xsd"><dc:title>Xian Qin dian ji suo shu shang gu shi liao yan jiu /--Li Weitai.</dc:title><dc:title>先秦典籍所上古史料硏究 /--李偉泰.</dc:title><dc:creator>Li, Weitai.</dc:creator><dc:creator>李偉泰.</dc:creator><dc:subject>Chinese literature--Qin and Han dynasties, 221 B.C.-220 A.D.</dc:subject><dc:description>Reproduced from typescript.</dc:description><dc:description>Thesis (Ph. D.)--Guo li Taiwan da xue, 1977.</dc:description><dc:description>Bibliography: p. 251-262.</dc:description><dc:publisher>[Taibei? :s.n.],</dc:publisher><dc:date>6600</dc:date><dc:type>Electronic Thesis or Dissertation</dc:type><dc:identifier>unknown</dc:identifier><dc:coverage>China--History--To 221 B.C.--Historiography.</dc:coverage><dc:coverage>China--History--To 221 B. C.--Historiography.</dc:coverage></oai_dc:dc></metadata></record>
<record><header><identifier>oai:oaicat.oclc.org:2000/ocm03903355</identifier><datestamp>2007-01-25T13:37:14Z</datestamp></header><metadata><oai_dc:dc xmlns:dc="http://purl.org/dc/elements/1.1/" xmlns:oai_dc="http://www.openarchives.org/OAI/2.0/oai_dc/" xmlns:xsi="http://www.w3.org/2001/XMLSchema-instance" xsi:schemaLocation="http://www.openarchives.org/OAI/2.0/oai_dc/ http://www.openarchives.org/OAI/2.0/oai_dc.xsd"><dc:title>Ritsuryō kokka seiritsu katei no kenkyū /--Yagi Atsuru cho.</dc:title><dc:title>律国家成立過程の研究 /--八木充著.</dc:title><dc:creator>Yagi, Atsuru,--1931-</dc:creator><dc:creator>八木充,--1931-</dc:creator><dc:subject>unknown</dc:subject><dc:description>A revision of the author&amp;apos;s thesis--Kyōto Daigaku.</dc:description><dc:description>A revision of the author&amp;apos;s thesis--京都大学.</dc:description><dc:description>Includes bibliographical references.</dc:description><dc:publisher>Tōkyō :Hanawa Shobō,</dc:publisher><dc:date>4300</dc:date><dc:type>Electronic Thesis or Dissertation</dc:type><dc:identifier>unknown</dc:identifier><dc:coverage>Japan--Politics and government--To 794.</dc:coverage></oai_dc:dc></metadata></record>
<record><header><identifier>oai:oaicat.oclc.org:2001/ocm09300504</identifier><datestamp>2007-01-25T13:37:14Z</datestamp></header><metadata><oai_dc:dc xmlns:dc="http://purl.org/dc/elements/1.1/" xmlns:oai_dc="http://www.openarchives.org/OAI/2.0/oai_dc/" xmlns:xsi="http://www.w3.org/2001/XMLSchema-instance" xsi:schemaLocation="http://www.openarchives.org/OAI/2.0/oai_dc/ http://www.openarchives.org/OAI/2.0/oai_dc.xsd"><dc:title>al-ʻArab wa-al-arḍ fī al-ʻIrāq :--fī ṣadr al-Islām /--ta&amp;apos;līf Jamāl Muḥammad Dāwūd Muḥammad Jūdah ; bi-ishrāf ʻAbd al-ʻAzīz al-Dūrī.</dc:title><dc:title>العرب والارض في العراق :--في صدر الاسلام /--تأليف جمال محمد داود محمد جودة ؛ باشراف عبد العزيز الدوري.</dc:title><dc:creator>Jūdah, Jamāl Muḥammad Dāwūd Muḥammad.</dc:creator><dc:creator>جوده، جمال محمد داود محمد.</dc:creator><dc:subject>Arabs--Migrations--History--To 1500.</dc:subject><dc:subject>Islamic Empire--History--622-661.</dc:subject><dc:description>Thesis (M.A.)--al-Jāmiʻah al-Urdunīyah, 1977.</dc:description><dc:description>Includes bibliographical references (p. 267-287).</dc:description><dc:publisher>[Amman? :s.n.],</dc:publisher><dc:date>1979</dc:date><dc:type>Electronic Thesis or Dissertation</dc:type><dc:identifier>unknown</dc:identifier><dc:language>Abstract in English.</dc:language><dc:coverage>Iraq--History--634-1534.</dc:coverage><dc:coverage>Iraq--History--634-1534.</dc:coverage></oai_dc:dc></metadata></record>
<record><header><identifier>oai:oaicat.oclc.org:2001/ocm10723273</identifier><datestamp>2007-01-25T13:37:14Z</datestamp></header><metadata><oai_dc:dc xmlns:dc="http://purl.org/dc/elements/1.1/" xmlns:oai_dc="http://www.openarchives.org/OAI/2.0/oai_dc/" xmlns:xsi="http://www.w3.org/2001/XMLSchema-instance" xsi:schemaLocation="http://www.openarchives.org/OAI/2.0/oai_dc/ http://www.openarchives.org/OAI/2.0/oai_dc.xsd"><dc:title>Pukhan honinpŏp yŏnʾgu :--Soryŏn pŏmniron, chŏntʻongchŏk kajok chedo mit Chosŏn Nodongdang ŭi chŏngchʻaek kan ŭi kaltŭng ŭl chungsim ŭro /--Chʻoe Tal-gon.</dc:title><dc:title>北韓婚姻法研究 :--소련法理論,傳統的家族制度및朝鮮勞動黨의政策間의葛藤을中心으로 /--崔達坤.</dc:title><dc:creator>Chʻoe, Tal-gon.</dc:creator><dc:creator>崔達坤.</dc:creator><dc:subject>Marriage law--Korea (North)</dc:subject><dc:subject>Domestic relations--Korea (North)</dc:subject><dc:description>Thesis (doctoral)--Koryŏ Taehakkyo, 1975.</dc:description><dc:description>Thesis (doctoral)--高麗大學校, 1975.</dc:description><dc:description>Bibliography: p. 267-272.</dc:description><dc:date>1975</dc:date><dc:type>Electronic Thesis or Dissertation</dc:type><dc:identifier>unknown</dc:identifier></oai_dc:dc></metadata></record>
<resumptionToken completeListSize="7" cursor="0" expirationDate="2010-06-15T17:30:04Z">1276619404973:5:7:oai_dc</resumptionToken></ListRecords></OAI-PMH>
resumptionToken: 1276619404973:5:7:oai_dc
<?xml-stylesheet type="text/xsl" href="/oaicat/oaicat.xsl"?>
<OAI-PMH xmlns="http://www.openarchives.org/OAI/2.0/" xmlns:xsi="http://www.w3.org/2001/XMLSchema-instance" xsi:schemaLocation="http://www.openarchives.org/OAI/2.0/ http://www.openarchives.org/OAI/2.0/OAI-PMH.xsd"><responseDate>2010-06-15T16:30:05Z</responseDate><request resumptionToken="1276619404973:5:7:oai_dc" verb="ListRecords">http://alcme.oclc.org/oaicat/OAIHandler</request><ListRecords>
<record><header><identifier>oai:oaicat.oclc.org:2000/ocm07401571</identifier><datestamp>2007-01-25T13:37:14Z</datestamp></header><metadata><oai_dc:dc xmlns:dc="http://purl.org/dc/elements/1.1/" xmlns:oai_dc="http://www.openarchives.org/OAI/2.0/oai_dc/" xmlns:xsi="http://www.w3.org/2001/XMLSchema-instance" xsi:schemaLocation="http://www.openarchives.org/OAI/2.0/oai_dc/ http://www.openarchives.org/OAI/2.0/oai_dc.xsd"><dc:title>Wei Zhongxian (1568-1628) :--a reappraisal of the eunuch and the factional strife at the late Ming court /--by Ulrich Hans-Richard Mammitzsch.</dc:title><dc:creator>Mammitzsch, Ulrich Hans-Richard,--1935-</dc:creator><dc:subject>Wei, Zhongxian,--1568-1627.</dc:subject><dc:subject>魏忠賢,--1568-1628.</dc:subject><dc:description>Photocopy of typescript. Ann Arbor, Mich. : University Microfilms International, 1981. -- 21 cm.</dc:description><dc:description>Thesis (Ph. D.)--University of Hawaii, 1968.</dc:description><dc:description>Bibliography: leaves [307]-317.</dc:description><dc:date>1968</dc:date><dc:type>Electronic Thesis or Dissertation</dc:type><dc:identifier>unknown</dc:identifier><dc:coverage>China--History--Ming dynasty, 1368-1644.</dc:coverage><dc:coverage>China--Politics and government--Early to 1643.</dc:coverage></oai_dc:dc></metadata></record>
<record><header><identifier>oai:oaicat.oclc.org:2002/ocm12537568</identifier><datestamp>2007-01-25T13:37:14Z</datestamp></header><metadata><oai_dc:dc xmlns:dc="http://purl.org/dc/elements/1.1/" xmlns:oai_dc="http://www.openarchives.org/OAI/2.0/oai_dc/" xmlns:xsi="http://www.w3.org/2001/XMLSchema-instance" xsi:schemaLocation="http://www.openarchives.org/OAI/2.0/oai_dc/ http://www.openarchives.org/OAI/2.0/oai_dc.xsd"><dc:title>Zheng Sixiao yan jiu ji qi shi jian zhu /--Yang Ligui zhuan.</dc:title><dc:title>鄭思肖硏究及其詩箋注 /--楊麗圭撰.</dc:title><dc:creator>Yang, Ligui.</dc:creator><dc:creator>楊麗圭.</dc:creator><dc:subject>Zheng, Sixiao,--1241-1318.</dc:subject><dc:subject>鄭思肖,--1241-1318.</dc:subject><dc:description>Kan wu biao inserted.</dc:description><dc:description>勘表 inserted.</dc:description><dc:description>Thesis (M.A.)--Zhongguo wen hua xue yuan, 1977.</dc:description><dc:description>Thesis (M.A.)--中國文化學院, 1977.</dc:description><dc:description>Bibliography: p. 359-371.</dc:description><dc:date>6600</dc:date><dc:type>Electronic Thesis or Dissertation</dc:type><dc:identifier>unknown</dc:identifier></oai_dc:dc></metadata></record>
<resumptionToken/></ListRecords></OAI-PMH>
resumptionToken: 
</harvest>
Tue Jun 15 12:30:02 EDT 2010
